module github.com/oxyno-zeta/s3-proxy

go 1.22

toolchain go1.22.0

require (
	emperror.dev/errors v0.8.1
	github.com/Masterminds/sprig/v3 v3.2.3
	github.com/aws/aws-sdk-go v1.55.5
	github.com/coreos/go-oidc/v3 v3.11.0
	github.com/dimiro1/health v0.0.0-20231118160444-e388c68d7d7e
	github.com/dustin/go-humanize v1.0.1
	github.com/fsnotify/fsnotify v1.7.0
	github.com/go-chi/chi/v5 v5.1.0
	github.com/go-chi/cors v1.2.1
	github.com/go-chi/httptracer v0.3.0
	github.com/go-playground/validator/v10 v10.22.0
	github.com/go-resty/resty/v2 v2.14.0
	github.com/gobwas/glob v0.2.3
	github.com/johannesboyne/gofakes3 v0.0.0-20240701191259-edd0227ffc37
	github.com/opentracing/opentracing-go v1.2.0
	github.com/prometheus/client_golang v1.20.0
	github.com/sirupsen/logrus v1.9.3
	github.com/spf13/cobra v1.8.1
	github.com/spf13/viper v1.19.0
	github.com/stretchr/testify v1.9.0
	github.com/thoas/go-funk v0.9.3
	github.com/uber/jaeger-client-go v2.30.0+incompatible
	github.com/uber/jaeger-lib v2.4.1+incompatible
	go.uber.org/mock v0.4.0
	golang.org/x/net v0.28.0
	golang.org/x/oauth2 v0.22.0
	golang.org/x/sync v0.8.0
	gopkg.in/yaml.v3 v3.0.1
)

require (
	github.com/HdrHistogram/hdrhistogram-go v1.1.2 // indirect
	github.com/Masterminds/goutils v1.1.1 // indirect
	github.com/Masterminds/semver/v3 v3.2.1 // indirect
	github.com/beorn7/perks v1.0.1 // indirect
	github.com/cespare/xxhash/v2 v2.3.0 // indirect
	github.com/davecgh/go-spew v1.1.2-0.20180830191138-d8f796af33cc // indirect
	github.com/gabriel-vasile/mimetype v1.4.5 // indirect
	github.com/go-jose/go-jose/v4 v4.0.4 // indirect
	github.com/go-playground/locales v0.14.1 // indirect
	github.com/go-playground/universal-translator v0.18.1 // indirect
	github.com/google/uuid v1.6.0 // indirect
	github.com/hashicorp/hcl v1.0.0 // indirect
	github.com/huandu/xstrings v1.5.0 // indirect
	github.com/imdario/mergo v1.0.0 // indirect
	github.com/inconshreveable/mousetrap v1.1.0 // indirect
	github.com/jmespath/go-jmespath v0.4.0 // indirect
	github.com/klauspost/compress v1.17.9 // indirect
	github.com/leodido/go-urn v1.4.0 // indirect
	github.com/magiconair/properties v1.8.7 // indirect
	github.com/mitchellh/copystructure v1.2.0 // indirect
	github.com/mitchellh/mapstructure v1.5.0 // indirect
	github.com/mitchellh/reflectwalk v1.0.2 // indirect
	github.com/munnerz/goautoneg v0.0.0-20191010083416-a7dc8b61c822 // indirect
	github.com/pelletier/go-toml/v2 v2.2.2 // indirect
	github.com/pkg/errors v0.9.1 // indirect
	github.com/pmezard/go-difflib v1.0.1-0.20181226105442-5d4384ee4fb2 // indirect
	github.com/prometheus/client_model v0.6.1 // indirect
	github.com/prometheus/common v0.55.0 // indirect
	github.com/prometheus/procfs v0.15.1 // indirect
	github.com/ryszard/goskiplist v0.0.0-20150312221310-2dfbae5fcf46 // indirect
	github.com/sagikazarmark/locafero v0.6.0 // indirect
	github.com/sagikazarmark/slog-shim v0.1.0 // indirect
	github.com/shabbyrobe/gocovmerge v0.0.0-20230507112040-c3350d9342df // indirect
	github.com/shopspring/decimal v1.4.0 // indirect
	github.com/sourcegraph/conc v0.3.0 // indirect
	github.com/spf13/afero v1.11.0 // indirect
	github.com/spf13/cast v1.7.0 // indirect
	github.com/spf13/pflag v1.0.5 // indirect
	github.com/subosito/gotenv v1.6.0 // indirect
	go.uber.org/atomic v1.11.0 // indirect
	go.uber.org/multierr v1.11.0 // indirect
	golang.org/x/crypto v0.26.0 // indirect
	golang.org/x/exp v0.0.0-20240808152545-0cdaa3abc0fa // indirect
	golang.org/x/sys v0.24.0 // indirect
	golang.org/x/text v0.17.0 // indirect
	golang.org/x/tools v0.24.0 // indirect
	google.golang.org/protobuf v1.34.2 // indirect
	gopkg.in/ini.v1 v1.67.0 // indirect
)

replace github.com/imdario/mergo => github.com/imdario/mergo v0.3.16
